[1] "IDW Func Info: Giờ  0 PM2.5 FALSE FALSE IDW"
[1] "IDW Func Info: Giờ 2020-03-31 0 PM2.5 FALSE FALSE IDW"
[1] "IDW Func Info: Giờ  0 PM2.5 FALSE FALSE IDW"
[1] "IDW Func Info: Ngày 2020-03-31 0 PM2.5 FALSE FALSE IDW"
Simple feature collection with 46 features and 1 field
Geometry type: MULTIPOLYGON
Dimension:     XY
Bounding box:  xmin: 425565 ymin: 2297963 xmax: 501890.3 ymax: 2349322
Projected CRS: _MI_0
# A tibble: 46 × 2
   IGDS_LEVEL                                                                                geometry
        <int>                                                                      <MULTIPOLYGON [m]>
 1       7106 (((483643.1 2326144, 483643.9 2326148, 483728.5 2326628, 483773.5 2326619, 483780.7 ...
 2       7106 (((480664.7 2320341, 480546.7 2320219, 480414 2320097, 480197.4 2320290, 480187.1 23...
 3       7101 (((476978.9 2320937, 476963.8 2320903, 476931 2320847, 476857.6 2320772, 476809.3 23...
 4       7106 (((484439.3 2321606, 484429.3 2321567, 484265.7 2321475, 484287.4 2321423, 484369.8 ...
 5       7106 (((490347.8 2330843, 490506.9 2330822, 490682.6 2330802, 490706.6 2330799, 490850.6 ...
 6       7101 (((491957.1 2330196, 491831.8 2330325, 491479.2 2330593, 491125.9 2330743, 490850.6 ...
 7       7106 (((486892.9 2321648, 486902 2321836, 486900.7 2321929, 486953.3 2321958, 486974.4 23...
 8       7106 (((481210.3 2324847, 481125.2 2324862, 481078.8 2324866, 481622.2 2325337, 481735.4 ...
 9       7106 (((479661.9 2326700, 479698.9 2326711, 479757.2 2326717, 479751.1 2326764, 479747.2 ...
10          0 (((479964 2328850, 479959.7 2328826, 479957 2328671, 479956.1 2328536, 479959.5 2328...
# ℹ 36 more rows
# ℹ Use `print(n = ...)` to see more rows
…
